<?xml version="1.0"?>
<svg xmlns="http://www.w3.org/2000/svg" xmlns:xlink="http://www.w3.org/1999/xlink" viewBox="0 0 530 538" enable-background="new 0 0 530 538">
  <defs>
    <linearGradient id="8" gradientUnits="userSpaceOnUse" y1="282.53" x2="0" y2="263.52" xlink:href="#2"/>
    <linearGradient id="D" gradientUnits="userSpaceOnUse" x1="135.11" y1="140.84" x2="118.53" y2="153.78">
      <stop offset=".18" stop-color="#0639bf"/>
      <stop offset="1" stop-color="#1f6bff"/>
    </linearGradient>
    <linearGradient id="9" gradientUnits="userSpaceOnUse" y1="299.46" x2="0" y2="294.51" xlink:href="#2"/>
    <linearGradient id="B" gradientUnits="userSpaceOnUse" y1="183" x2="0" y2="145" xlink:href="#0"/>
    <linearGradient id="C" gradientUnits="userSpaceOnUse" y1="183" x2="0" y2="145" xlink:href="#0"/>
    <linearGradient id="A" gradientUnits="userSpaceOnUse" y1="536" x2="0" y2="405.86">
      <stop stop-color="#9f94c4"/>
      <stop offset=".19" stop-color="#aea7c7"/>
      <stop offset=".465" stop-color="#bfbbca"/>
      <stop offset=".737" stop-color="#c9c8cb"/>
      <stop offset="1" stop-color="#ccc"/>
    </linearGradient>
    <linearGradient id="7" gradientUnits="userSpaceOnUse" y1="251.03" x2="0" y2="221.53" xlink:href="#2"/>
    <linearGradient id="0" gradientUnits="userSpaceOnUse" y1="536" x2="0" y2="334.1">
      <stop stop-color="#ed6265"/>
      <stop offset=".243" stop-color="#e38385"/>
      <stop offset=".574" stop-color="#d6abac"/>
      <stop offset=".838" stop-color="#cfc3c3"/>
      <stop offset="1" stop-color="#ccc"/>
    </linearGradient>
    <linearGradient id="1" gradientUnits="userSpaceOnUse" y1="536" x2="0" y2="363.72" xlink:href="#0"/>
    <linearGradient id="6" gradientUnits="userSpaceOnUse" y1="218.02" x2="0" y2="211.49" xlink:href="#2"/>
    <linearGradient id="2" gradientUnits="userSpaceOnUse" y1="519.1" x2="0" y2="192.91">
      <stop stop-color="#e6e6e6"/>
      <stop offset=".258" stop-color="#e6e5e3"/>
      <stop offset=".412" stop-color="#e7e3db"/>
      <stop offset=".54" stop-color="#e9decd"/>
      <stop offset=".653" stop-color="#ecd8b8"/>
      <stop offset=".756" stop-color="#efcf9e"/>
      <stop offset=".852" stop-color="#f3c57e"/>
      <stop offset=".941" stop-color="#f7b958"/>
      <stop offset="1" stop-color="#fbb03b"/>
    </linearGradient>
    <linearGradient id="4" gradientUnits="userSpaceOnUse" y1="293.52" x2="0" y2="284.51" xlink:href="#2"/>
    <linearGradient id="5" gradientUnits="userSpaceOnUse" y1="274" x2="0" y2="227.03" xlink:href="#2"/>
    <linearGradient id="3" gradientUnits="userSpaceOnUse" y1="313.47" x2="0" y2="308.97" xlink:href="#2"/>
  </defs>
  <switch>
    <g>
      <path d="m280 183c7-15 10-38 10-38l-.022.489c.535-7.466.781-14.06.737-19.774-.214-12.676-2.266-23.551-6.157-32.624-3.89-9.07-10.319-17.968-19.284-26.685-.467-.455-1.048-.668-1.74-.641-.692.028-1.284.293-1.773.797-9.138 9.396-15.405 18.399-18.8 27.01-3.395 8.607-5.02 19.567-4.867 32.883.115 5.716.545 12.298 1.287 19.744l-.131-1.195c0 0 3 23 10 38l.982.227 1.737-.024-1.312 6.558c-.244 1.222.69 2.363 1.937 2.363h6.649c0 1.08.866 1.975 1.965 1.975h7.584c1.099 0 1.965-.896 1.965-1.975h6.649c1.247 0 2.181-1.14 1.937-2.363l-1.384-6.921 2.206-.031-.165.191" fill="#f2f2f2"/>
      <path fill="#f05133" d="m239.38 146.19l-19.38 22.81 9.25 34.75h9.75l11-20.75-6.62-17.12z"/>
      <path fill="#f05133" d="m290.62 146.19l19.38 22.81-9.25 34.75h-9.75l-11-20.75 6.63-17.12z"/>
      <path d="m367.16 536c14.384-20.864 22.837-46.33 22.837-73.815 0-70.74-55.964-128.09-125-128.09-69.04 0-125 57.35-125 128.09 0 27.488 8.453 52.951 22.837 73.815h204.33z" fill="url(#0)" stroke="#4d4d4d" stroke-linejoin="round" stroke-linecap="round" stroke-width="4" stroke-miterlimit="10"/>
      <path d="m228.63 536c12.577-17.804 19.968-39.531 19.968-62.987 0-60.36-48.934-109.3-109.3-109.3s-109.3 48.935-109.3 109.3c0 23.455 7.391 45.18 19.968 62.987h178.66z" fill="url(#1)" stroke="#4d4d4d" stroke-linejoin="round" stroke-linecap="round" stroke-width="4" stroke-miterlimit="10"/>
      <path d="m480.51 536c12.274-17.804 19.487-39.531 19.487-62.987 0-60.36-47.755-109.3-106.66-109.3-58.908 0-106.66 48.934-106.66 109.3 0 23.455 7.213 45.18 19.487 62.987h174.35z" fill="url(#1)" stroke="#4d4d4d" stroke-linejoin="round" stroke-linecap="round" stroke-width="4" stroke-miterlimit="10"/>
      <path d="m393.42 424.37c-6.479 0-12.605 1.503-18.06 4.171-9.502-25.548-34.1-43.751-62.959-43.751-6.876 0-13.508 1.038-19.754 2.958l-19.356-194.84h-16.59l-19.356 194.84c-6.246-1.92-12.879-2.958-19.754-2.958-28.993 0-53.694 18.373-63.1 44.11-5.626-2.889-11.998-4.53-18.757-4.53-22.714 0-41.13 18.414-41.13 41.13 0 22.714 18.414 41.13 41.13 41.13 11.609 0 22.09-4.817 29.565-12.553 12.311 15.262 31.15 25.03 52.29 25.03 18.504 0 35.26-7.486 47.41-19.592 12.147 12.11 28.901 19.592 47.41 19.592 20.914 0 39.593-9.562 51.91-24.55 7.445 7.457 17.736 12.07 29.11 12.07 22.715 0 41.13-18.414 41.13-41.13-.001-22.715-18.415-41.13-41.13-41.13z" fill="url(#2)" stroke="#4d4d4d" stroke-linejoin="round" stroke-linecap="round" stroke-width="4" stroke-miterlimit="10"/>
      <path fill="url(#3)" stroke="#4d4d4d" stroke-linejoin="round" stroke-linecap="round" stroke-width="4" stroke-miterlimit="10" d="m237.18 308.97l-.448 4.505"/>
      <path fill="url(#4)" stroke="#4d4d4d" stroke-linejoin="round" stroke-linecap="round" stroke-width="4" stroke-miterlimit="10" d="m239.6 284.51l-.895 9.01"/>
      <path fill="url(#5)" stroke="#4d4d4d" stroke-linejoin="round" stroke-linecap="round" stroke-width="4" stroke-miterlimit="10" d="m245.31 227.03l-4.666 46.969"/>
      <path fill="url(#6)" stroke="#4d4d4d" stroke-linejoin="round" stroke-linecap="round" stroke-width="4" stroke-miterlimit="10" d="m246.86 211.49l-.649 6.535"/>
      <path fill="url(#7)" stroke="#4d4d4d" stroke-linejoin="round" stroke-linecap="round" stroke-width="4" stroke-miterlimit="10" d="m287.06 251.03l-2.931-29.499"/>
      <path fill="url(#8)" stroke="#4d4d4d" stroke-linejoin="round" stroke-linecap="round" stroke-width="4" stroke-miterlimit="10" d="m290.2 282.53l-1.889-19.01"/>
      <path fill="url(#9)" stroke="#4d4d4d" stroke-linejoin="round" stroke-linecap="round" stroke-width="4" stroke-miterlimit="10" d="m291.88 299.46l-.492-4.951"/>
      <path d="m484.61 536c.193-2.096.305-4.216.305-6.363 0-37.818-30.657-68.48-68.47-68.48-23.16 0-43.626 11.513-56.02 29.12-5.775-47.569-46.29-84.42-95.42-84.42s-89.64 36.855-95.42 84.42c-12.392-17.604-32.854-29.12-56.02-29.12-37.818 0-68.47 30.657-68.47 68.47 0 2.147.112 4.267.305 6.363h439.21z" fill="url(#A)" stroke="#4d4d4d" stroke-linejoin="round" stroke-linecap="round" stroke-width="4" stroke-miterlimit="10"/>
      <path fill="none" stroke="#4d4d4d" stroke-linejoin="round" stroke-linecap="round" stroke-width="8" stroke-miterlimit="10" d="m4 534h522"/>
      <path d="m255.03 60.985c1.901-1.96 5.456-5.104 8.188-5.214.157-.006.296-.008.435-.008 2.718 0 6.276 3.03 8.205 4.909" fill="none" stroke="#4d4d4d" stroke-linejoin="round" stroke-linecap="round" stroke-width="4" stroke-miterlimit="10"/>
      <path d="m309.4 166.47l-19.418-20.984c.535-7.466.781-14.06.737-19.774-.214-12.676-2.266-23.551-6.157-32.624-3.89-9.07-10.319-17.968-19.284-26.685-.467-.455-1.048-.668-1.74-.641-.692.028-1.284.293-1.773.797-9.138 9.396-15.405 18.399-18.8 27.01-3.395 8.607-5.02 19.567-4.867 32.883.115 5.716.545 12.298 1.287 19.744l-18.823 21.519c-.488.648-.655 1.395-.501 2.244l8.974 32.26c.301 1.133 1.09 1.726 2.37 1.778l6.816-.095c.64-.009 1.204-.265 1.694-.77.21-.215.35-.394.419-.537l9.903-19.371 1.737-.024-1.312 6.558c-.244 1.222.69 2.363 1.937 2.363h6.649c0 1.08.866 1.975 1.965 1.975h7.584c1.099 0 1.965-.896 1.965-1.975h6.649c1.247 0 2.181-1.14 1.937-2.363l-1.384-6.921 2.206-.031 10.442 19.09c.472.811 1.189 1.227 2.148 1.248l6.818-.094c.708-.082 1.274-.338 1.694-.77.315-.323.522-.682.624-1.075l8.07-32.502c.13-.852-.059-1.596-.565-2.228z" fill="none" stroke="#4d4d4d" stroke-linejoin="round" stroke-linecap="round" stroke-width="4" stroke-miterlimit="10"/>
      <path d="m216.74 189.33l.798 2.871m-2.241-32.401l-4.283 4.896c-.488.648-.655 1.395-.501 2.244l2.78 9.995" fill="none" stroke="#4d4d4d" stroke-linejoin="round" stroke-linecap="round" stroke-width="4" stroke-miterlimit="10"/>
      <path d="m314.69 182.24l.308-1.236m3.173-10.341l1.313-4.719c.154-.849-.013-1.597-.501-2.244l-2.753-3.147" fill="none" stroke="#4d4d4d" stroke-linejoin="round" stroke-linecap="round" stroke-width="4" stroke-miterlimit="10"/>
      <path d="m290 145c0 0-3 23-10 38" fill="url(#B)" stroke="#4d4d4d" stroke-linejoin="round" stroke-linecap="round" stroke-width="4" stroke-miterlimit="10"/>
      <path d="m239.25 145c0 0 3 23 10 38" fill="url(#C)" stroke="#4d4d4d" stroke-linejoin="round" stroke-linecap="round" stroke-width="4" stroke-miterlimit="10"/>
      <path fill="none" stroke="#4d4d4d" stroke-linejoin="round" stroke-linecap="round" stroke-width="4" stroke-miterlimit="10" d="m265 204v-58"/>
      <path d="m275.22 113.05l-10.182-10.182c-.586-.587-1.537-.587-2.124 0l-2.114 2.115 2.682 2.682c.623-.211 1.338-.069 1.835.428.5.5.64 1.221.424 1.846l2.585 2.585c.626-.216 1.347-.076 1.847.424.698.698.698 1.829 0 2.527-.698.698-1.829.698-2.528 0-.525-.525-.655-1.297-.389-1.944l-2.411-2.411v6.344c.17.084.331.197.472.338.698.698.698 1.829 0 2.528-.698.698-1.83.698-2.527 0-.698-.699-.698-1.83 0-2.528.173-.172.372-.303.585-.39v-6.403c-.213-.087-.412-.216-.585-.39-.529-.528-.656-1.304-.385-1.954l-2.644-2.645-6.982 6.981c-.586.587-.586 1.538 0 2.125l10.183 10.182c.586.586 1.537.586 2.124 0l10.135-10.135c.585-.585.585-1.537-.001-2.123" fill="#f05133"/>
      <path d="m263.97 99.09c.494 0 .989.189 1.366.566l13.1 13.1c.755.754.755 1.978 0 2.733l-13.04 13.04c-.378.377-.872.566-1.367.566s-.989-.189-1.366-.566l-13.1-13.1c-.754-.755-.754-1.978 0-2.733l13.04-13.04c.378-.377.872-.566 1.367-.566m0-4c-1.584 0-3.074.617-4.194 1.737l-13.04 13.04c-2.312 2.315-2.312 6.078 0 8.39l13.1 13.1c1.119 1.12 2.609 1.737 4.194 1.737 1.584 0 3.073-.616 4.193-1.736l13.04-13.04c1.121-1.121 1.738-2.61 1.738-4.195 0-1.585-.617-3.075-1.738-4.195l-13.1-13.1c-1.119-1.121-2.609-1.738-4.194-1.738z" fill="#4d4d4d"/>
      <path fill="none" stroke="#4d4d4d" stroke-linejoin="round" stroke-linecap="round" stroke-width="4" stroke-miterlimit="10" d="m301 108l72-67h47"/>
      <path fill="none" stroke="#4d4d4d" stroke-linejoin="round" stroke-linecap="round" stroke-width="4" stroke-miterlimit="10" d="m232 88l-72-67h-47"/>
      <path fill="none" stroke="#4d4d4d" stroke-linejoin="round" stroke-linecap="round" stroke-width="4" stroke-miterlimit="10" d="m227 143h-87"/>
      <g>
        <path d="m-72.77 38.831l7.997-24.609h-15.995l7.998 24.609" fill="#e24329" transform="translate(155.2 1.16)"/>
        <path d="m53.896 38.831l-7.997-24.609h-11.198l19.2 24.609" fill="#fc6d26" transform="translate(28.531 1.161)"/>
        <path d="m63.14 15.13l-2.434 7.477c-.22.679.018 1.428.6 1.852l21.03 15.28-19.2-24.609" fill="#fca326" transform="translate(.089.256)"/>
        <path d="m33.809-264.87h11.207l-4.823-14.822c-.247-.758-1.323-.758-1.578 0l-4.806 14.822" fill="#e24329" transform="translate(29.422 280.26)"/>
        <path d="m-164.76 38.831l7.997-24.609h11.207l-19.2 24.609" fill="#fc6d26" transform="translate(247.2 1.161)"/>
        <path d="m-144.68 15.13l2.434 7.477c.22.679-.018 1.428-.6 1.852l-21.03 15.272 19.19-24.601" fill="#fca326" transform="translate(246.31.256)"/>
        <path d="m-235.34-264.87h-11.207l4.814-14.822c.247-.758 1.323-.758 1.578 0l4.815 14.822" fill="#e24329" transform="translate(336.97 280.26)"/>
      </g>
      <path d="m445.43 24c-9.624 0-17.429 7.804-17.429 17.431 0 7.7 4.994 14.233 11.921 16.539.872.16 1.19-.378 1.19-.84 0-.414-.015-1.51-.024-2.965-4.849 1.053-5.872-2.337-5.872-2.337-.793-2.01-1.935-2.55-1.935-2.55-1.583-1.081.12-1.06.12-1.06 1.749.123 2.67 1.796 2.67 1.796 1.555 2.664 4.08 1.894 5.073 1.448.158-1.126.609-1.894 1.107-2.33-3.871-.44-7.94-1.935-7.94-8.615 0-1.903.679-3.459 1.794-4.677-.179-.441-.777-2.213.171-4.613 0 0 1.464-.469 4.793 1.787 1.39-.387 2.881-.58 4.364-.587 1.48.007 2.971.2 4.364.587 3.328-2.256 4.789-1.787 4.789-1.787.951 2.4.353 4.172.173 4.613 1.117 1.218 1.792 2.774 1.792 4.677 0 6.696-4.075 8.17-7.958 8.601.626.538 1.183 1.602 1.183 3.228 0 2.33-.021 4.21-.021 4.782 0 .466.314 1.01 1.199.838 6.92-2.309 11.91-8.838 11.91-16.537-.002-9.625-7.807-17.429-17.434-17.429" fill-rule="evenodd"/>
      <g>
        <path fill="none" d="m114.09 147.91h6.98l1.68-9.83h-10.51z"/>
        <path d="m101.96 128c-.59-.008-1.075.465-1.083 1.055-.001.062.004.124.014.185l4.538 27.547c.117.696.716 1.207 1.422 1.213h21.769c.53.007.984-.375 1.069-.898l4.538-27.857c.095-.583-.301-1.132-.884-1.226-.061-.01-.123-.014-.185-.014l-31.2-.005m19.11 19.909h-6.948l-1.881-9.829h10.513l-1.684 9.829" fill="#1f6bff"/>
        <path d="m132.78 138.08h-10.03l-1.684 9.829h-6.948l-8.204 9.738c.26.225.592.35.935.353h21.774c.53.007.984-.375 1.069-.898l3.09-19.02" fill="url(#D)"/>
      </g>
      <circle cx="151" cy="70" r="3" fill="#fbb03b" fill-rule="evenodd"/>
      <circle cx="161" cy="90" r="3" fill="#fbb03b" fill-rule="evenodd"/>
      <circle cx="301" cy="9" r="3" fill="#fbb03b" fill-rule="evenodd"/>
      <circle cx="361" cy="139" r="3" fill="#fbb03b" fill-rule="evenodd"/>
    </g>
  </switch>
</svg>
